Library\Bee\artifacts\mvdfrm\Unity.Burst.Editor.ref.dll_E2F92DAB6C167CC9.mvfrm
Library\Bee\artifacts\mvdfrm\Unity.Burst.ref.dll_F30DFA20C0DD1968.mvfrm
Library\Bee\artifacts\mvdfrm\Unity.Mathematics.Editor.ref.dll_9A20CFD48BC11F43.mvfrm
Library\Bee\artifacts\mvdfrm\Unity.Mathematics.ref.dll_E8EFDB1B8D5C174E.mvfrm
Library\Bee\artifacts\mvdfrm\Unity.PlasticSCM.Editor.ref.dll_257AEB342BE77856.mvfrm
Library\Bee\artifacts\mvdfrm\Unity.RenderPipeline.Universal.ShaderLibrary.ref.dll_5436F99F8BDCED8B.mvfrm
Library\Bee\artifacts\mvdfrm\Unity.RenderPipelines.Core.Editor.ref.dll_46EB9B6930B27991.mvfrm
Library\Bee\artifacts\mvdfrm\Unity.RenderPipelines.Core.Runtime.ref.dll_CE6A42C97D96EB0A.mvfrm
Library\Bee\artifacts\mvdfrm\Unity.RenderPipelines.Core.ShaderLibrary.ref.dll_7F2C410A434F5518.mvfrm
Library\Bee\artifacts\mvdfrm\Unity.RenderPipelines.ShaderGraph.ShaderGraphLibrary.ref.dll_1A2083B43FB0BF18.mvfrm
Library\Bee\artifacts\mvdfrm\Unity.RenderPipelines.Universal.Editor.ref.dll_0FF7AC68384616B1.mvfrm
Library\Bee\artifacts\mvdfrm\Unity.RenderPipelines.Universal.Runtime.ref.dll_5400A10AF7CC6BEA.mvfrm
Library\Bee\artifacts\mvdfrm\Unity.RenderPipelines.Universal.Shaders.ref.dll_9468B054363B0720.mvfrm
Library\Bee\artifacts\mvdfrm\Unity.Rider.Editor.ref.dll_9B5591808ABA37AF.mvfrm
Library\Bee\artifacts\mvdfrm\Unity.Searcher.Editor.ref.dll_12B7E1785E41BE0E.mvfrm
Library\Bee\artifacts\mvdfrm\Unity.ShaderGraph.Editor.ref.dll_0F50152946DB09D0.mvfrm
Library\Bee\artifacts\mvdfrm\Unity.TextMeshPro.Editor.ref.dll_159E061D77A10B86.mvfrm
Library\Bee\artifacts\mvdfrm\Unity.TextMeshPro.ref.dll_84A4293DBDD182DB.mvfrm
Library\Bee\artifacts\mvdfrm\Unity.Timeline.Editor.ref.dll_0D3D3C0B73557612.mvfrm
Library\Bee\artifacts\mvdfrm\Unity.Timeline.ref.dll_621CDDF9C514DF8F.mvfrm
Library\Bee\artifacts\mvdfrm\Unity.VSCode.Editor.ref.dll_3628369EB48E4C19.mvfrm
Library\Bee\artifacts\mvdfrm\Unity.VisualScripting.Core.Editor.ref.dll_EDC8690F57C5BDFD.mvfrm
Library\Bee\artifacts\mvdfrm\Unity.VisualScripting.Core.ref.dll_D75DF4EA1AFE54F4.mvfrm
Library\Bee\artifacts\mvdfrm\Unity.VisualScripting.Flow.Editor.ref.dll_6AF951BE66A4493E.mvfrm
Library\Bee\artifacts\mvdfrm\Unity.VisualScripting.Flow.ref.dll_1E6ED5409D07C9A3.mvfrm
Library\Bee\artifacts\mvdfrm\Unity.VisualScripting.SettingsProvider.Editor.ref.dll_A1A44354E0B583A8.mvfrm
Library\Bee\artifacts\mvdfrm\Unity.VisualScripting.State.Editor.ref.dll_E03858E727F23F6F.mvfrm
Library\Bee\artifacts\mvdfrm\Unity.VisualScripting.State.ref.dll_D91762B7076BE462.mvfrm
Library\Bee\artifacts\mvdfrm\Unity.VisualScripting.Welcome.Editor.ref.dll_855007D19CE1C2BE.mvfrm
Library\Bee\artifacts\mvdfrm\Unity.VisualStudio.Editor.ref.dll_3A975DBA53ABA4AD.mvfrm
Library\Bee\artifacts\mvdfrm\UnityEditor.TestRunner.ref.dll_193EC4CE382CBFB3.mvfrm
Library\Bee\artifacts\mvdfrm\UnityEditor.UI.ref.dll_4C98D3F7040CD4F5.mvfrm
Library\Bee\artifacts\mvdfrm\UnityEngine.TestRunner.ref.dll_E55D0F7C63F01D9E.mvfrm
Library\Bee\artifacts\mvdfrm\UnityEngine.UI.ref.dll_08FEAA520A2EFD60.mvfrm
Library\Bee\artifacts\mvdfrm\UnityEditor.Graphs.dll_391434D562EDDA78.mvfrm
Library\Bee\artifacts\mvdfrm\UnityEditor.CoreModule.dll_77938AF04F691646.mvfrm
Library\Bee\artifacts\mvdfrm\UnityEditor.DeviceSimulatorModule.dll_57298C73B8FFB45B.mvfrm
Library\Bee\artifacts\mvdfrm\UnityEditor.DiagnosticsModule.dll_F823B10DD6CED7E9.mvfrm
Library\Bee\artifacts\mvdfrm\UnityEditor.dll_575899FC61FF806F.mvfrm
Library\Bee\artifacts\mvdfrm\UnityEditor.GraphViewModule.dll_E6261396E20A98A0.mvfrm
Library\Bee\artifacts\mvdfrm\UnityEditor.PackageManagerUIModule.dll_B35A7035A5E88822.mvfrm
Library\Bee\artifacts\mvdfrm\UnityEditor.QuickSearchModule.dll_8333321B2FA5D442.mvfrm
Library\Bee\artifacts\mvdfrm\UnityEditor.SceneTemplateModule.dll_BA1CE622C7AB0F03.mvfrm
Library\Bee\artifacts\mvdfrm\UnityEditor.TextCoreFontEngineModule.dll_EDE60BE325196104.mvfrm
Library\Bee\artifacts\mvdfrm\UnityEditor.TextCoreTextEngineModule.dll_35CE4254B49D1A22.mvfrm
Library\Bee\artifacts\mvdfrm\UnityEditor.UIBuilderModule.dll_3AAEC0B354C311D4.mvfrm
Library\Bee\artifacts\mvdfrm\UnityEditor.UIElementsModule.dll_8BF5449F6A3B1BC2.mvfrm
Library\Bee\artifacts\mvdfrm\UnityEditor.UIElementsSamplesModule.dll_8DD70D764758B7CB.mvfrm
Library\Bee\artifacts\mvdfrm\UnityEditor.UIServiceModule.dll_73A0D2163DFA61EE.mvfrm
Library\Bee\artifacts\mvdfrm\UnityEditor.UnityConnectModule.dll_60E18377BE62E7FC.mvfrm
Library\Bee\artifacts\mvdfrm\UnityEngine.AccessibilityModule.dll_ECC251B9C82136A0.mvfrm
Library\Bee\artifacts\mvdfrm\UnityEngine.AIModule.dll_BBABE93013D9D7DA.mvfrm
Library\Bee\artifacts\mvdfrm\UnityEngine.AndroidJNIModule.dll_0A3E2D72B35A8A98.mvfrm
Library\Bee\artifacts\mvdfrm\UnityEngine.AnimationModule.dll_B4AB8FBFBC676D46.mvfrm
Library\Bee\artifacts\mvdfrm\UnityEngine.ARModule.dll_751EAE3370F736A3.mvfrm
Library\Bee\artifacts\mvdfrm\UnityEngine.AssetBundleModule.dll_C71C650C920C8934.mvfrm
Library\Bee\artifacts\mvdfrm\UnityEngine.AudioModule.dll_C5E1BF3B25730CB8.mvfrm
Library\Bee\artifacts\mvdfrm\UnityEngine.ClothModule.dll_2CCA1C35FF8FEB9C.mvfrm
Library\Bee\artifacts\mvdfrm\UnityEngine.ClusterInputModule.dll_E07DF88D6FEABAC2.mvfrm
Library\Bee\artifacts\mvdfrm\UnityEngine.ClusterRendererModule.dll_5CD64EE528BAC1DF.mvfrm
Library\Bee\artifacts\mvdfrm\UnityEngine.CoreModule.dll_9AB45E42F76E8171.mvfrm
Library\Bee\artifacts\mvdfrm\UnityEngine.CrashReportingModule.dll_C77D62452EADE5A9.mvfrm
Library\Bee\artifacts\mvdfrm\UnityEngine.DirectorModule.dll_26EA20776A5323CE.mvfrm
Library\Bee\artifacts\mvdfrm\UnityEngine.dll_89FCE0D4C0730D54.mvfrm
Library\Bee\artifacts\mvdfrm\UnityEngine.DSPGraphModule.dll_2C3B81E0DCB3F4EF.mvfrm
Library\Bee\artifacts\mvdfrm\UnityEngine.GameCenterModule.dll_348B778D799B7B89.mvfrm
Library\Bee\artifacts\mvdfrm\UnityEngine.GIModule.dll_53E8323DAF88BFF4.mvfrm
Library\Bee\artifacts\mvdfrm\UnityEngine.GridModule.dll_78257A310FC31768.mvfrm
Library\Bee\artifacts\mvdfrm\UnityEngine.HotReloadModule.dll_35F44DC5979A88C8.mvfrm
Library\Bee\artifacts\mvdfrm\UnityEngine.ImageConversionModule.dll_C8C84C95AADF79D3.mvfrm
Library\Bee\artifacts\mvdfrm\UnityEngine.IMGUIModule.dll_FE415EA1EBA4A099.mvfrm
Library\Bee\artifacts\mvdfrm\UnityEngine.InputLegacyModule.dll_5861802B29FE3F25.mvfrm
Library\Bee\artifacts\mvdfrm\UnityEngine.InputModule.dll_2C5786EB9BAB315C.mvfrm
Library\Bee\artifacts\mvdfrm\UnityEngine.JSONSerializeModule.dll_4CD9DAF5C75C972A.mvfrm
Library\Bee\artifacts\mvdfrm\UnityEngine.LocalizationModule.dll_1ECAC2E00766ADBB.mvfrm
Library\Bee\artifacts\mvdfrm\UnityEngine.NVIDIAModule.dll_9520D2F02026BDFD.mvfrm
Library\Bee\artifacts\mvdfrm\UnityEngine.ParticleSystemModule.dll_1A8FAB919CBF7137.mvfrm
Library\Bee\artifacts\mvdfrm\UnityEngine.PerformanceReportingModule.dll_FA55D0414911C730.mvfrm
Library\Bee\artifacts\mvdfrm\UnityEngine.Physics2DModule.dll_01517FB05D6464DB.mvfrm
Library\Bee\artifacts\mvdfrm\UnityEngine.PhysicsModule.dll_FF2FE3E25863FE89.mvfrm
Library\Bee\artifacts\mvdfrm\UnityEngine.ProfilerModule.dll_593059AE03ACAADB.mvfrm
Library\Bee\artifacts\mvdfrm\UnityEngine.RuntimeInitializeOnLoadManagerInitializerModule.dll_82368AC756C00BA4.mvfrm
Library\Bee\artifacts\mvdfrm\UnityEngine.ScreenCaptureModule.dll_66C1887ADBC8C38C.mvfrm
Library\Bee\artifacts\mvdfrm\UnityEngine.SharedInternalsModule.dll_4CD98B6B220D7523.mvfrm
Library\Bee\artifacts\mvdfrm\UnityEngine.SpriteMaskModule.dll_1DB7EA1D9B0B1103.mvfrm
Library\Bee\artifacts\mvdfrm\UnityEngine.SpriteShapeModule.dll_E07D926747AEC13E.mvfrm
Library\Bee\artifacts\mvdfrm\UnityEngine.StreamingModule.dll_69407D100BEF2484.mvfrm
Library\Bee\artifacts\mvdfrm\UnityEngine.SubstanceModule.dll_45EB915957422292.mvfrm
Library\Bee\artifacts\mvdfrm\UnityEngine.SubsystemsModule.dll_8865507F6952F916.mvfrm
Library\Bee\artifacts\mvdfrm\UnityEngine.TerrainModule.dll_19765F512E224777.mvfrm
Library\Bee\artifacts\mvdfrm\UnityEngine.TerrainPhysicsModule.dll_1B0A5464B6026BC4.mvfrm
Library\Bee\artifacts\mvdfrm\UnityEngine.TextCoreFontEngineModule.dll_6C45873638171FCF.mvfrm
Library\Bee\artifacts\mvdfrm\UnityEngine.TextCoreTextEngineModule.dll_B42DBDA7C79AD8ED.mvfrm
Library\Bee\artifacts\mvdfrm\UnityEngine.TextRenderingModule.dll_9000FA8593004381.mvfrm
Library\Bee\artifacts\mvdfrm\UnityEngine.TilemapModule.dll_B872C6D245DF2880.mvfrm
Library\Bee\artifacts\mvdfrm\UnityEngine.TLSModule.dll_4FE2DF330112051D.mvfrm
Library\Bee\artifacts\mvdfrm\UnityEngine.UaaLAnalyticsModule.dll_DAAC2A556D112EB1.mvfrm
Library\Bee\artifacts\mvdfrm\UnityEngine.UIElementsModule.dll_8CA3B1E76C7F350D.mvfrm
Library\Bee\artifacts\mvdfrm\UnityEngine.UIElementsNativeModule.dll_FDD424CB1760F844.mvfrm
Library\Bee\artifacts\mvdfrm\UnityEngine.UIModule.dll_B71F875D7020DD86.mvfrm
Library\Bee\artifacts\mvdfrm\UnityEngine.UmbraModule.dll_40B66B53B299B82B.mvfrm
Library\Bee\artifacts\mvdfrm\UnityEngine.UNETModule.dll_2D5AA62C447D76EA.mvfrm
Library\Bee\artifacts\mvdfrm\UnityEngine.UnityAnalyticsModule.dll_3A2F1C5B48E6C333.mvfrm
Library\Bee\artifacts\mvdfrm\UnityEngine.UnityConnectModule.dll_4E410786B8EAE8A7.mvfrm
Library\Bee\artifacts\mvdfrm\UnityEngine.UnityCurlModule.dll_E7C830F12C7B5F33.mvfrm
Library\Bee\artifacts\mvdfrm\UnityEngine.UnityTestProtocolModule.dll_4999C368A1540D21.mvfrm
Library\Bee\artifacts\mvdfrm\UnityEngine.UnityWebRequestAssetBundleModule.dll_93E436531BD19444.mvfrm
Library\Bee\artifacts\mvdfrm\UnityEngine.UnityWebRequestAudioModule.dll_7252241FCF7C91C8.mvfrm
Library\Bee\artifacts\mvdfrm\UnityEngine.UnityWebRequestModule.dll_DA67543FB5D41452.mvfrm
Library\Bee\artifacts\mvdfrm\UnityEngine.UnityWebRequestTextureModule.dll_885C8292DBB2B09D.mvfrm
Library\Bee\artifacts\mvdfrm\UnityEngine.UnityWebRequestWWWModule.dll_7EF00303B75A9559.mvfrm
Library\Bee\artifacts\mvdfrm\UnityEngine.VehiclesModule.dll_9EAD19F6E47CF369.mvfrm
Library\Bee\artifacts\mvdfrm\UnityEngine.VFXModule.dll_D0C177A1D77F6E8A.mvfrm
Library\Bee\artifacts\mvdfrm\UnityEngine.VideoModule.dll_EAEB43A5E805285D.mvfrm
Library\Bee\artifacts\mvdfrm\UnityEngine.VirtualTexturingModule.dll_2260D939F00F78CF.mvfrm
Library\Bee\artifacts\mvdfrm\UnityEngine.VRModule.dll_09F1ADE311DB62FE.mvfrm
Library\Bee\artifacts\mvdfrm\UnityEngine.WindModule.dll_1103396B88A4FFDA.mvfrm
Library\Bee\artifacts\mvdfrm\UnityEngine.XRModule.dll_3CB070E79B15B05C.mvfrm
Library\Bee\artifacts\mvdfrm\Unity.Android.Gradle.dll_F63EC14FC74E832E.mvfrm
Library\Bee\artifacts\mvdfrm\Unity.Android.Types.dll_F1D73D8881E1ECEE.mvfrm
Library\Bee\artifacts\mvdfrm\UnityEditor.Android.Extensions.dll_B2D07522D75EF82E.mvfrm
Library\Bee\artifacts\mvdfrm\UnityEditor.iOS.Extensions.Common.dll_86236ECE6482828B.mvfrm
Library\Bee\artifacts\mvdfrm\UnityEditor.iOS.Extensions.dll_48E128B459191B6A.mvfrm
Library\Bee\artifacts\mvdfrm\UnityEditor.iOS.Extensions.Xcode.dll_D8B0AFF0F84BB7F1.mvfrm
Library\Bee\artifacts\mvdfrm\UnityEditor.WebGL.Extensions.dll_801AE2394EDB7BCA.mvfrm
Library\Bee\artifacts\mvdfrm\UnityEditor.WindowsStandalone.Extensions.dll_1C14539C77D6D5BA.mvfrm
Library\Bee\artifacts\mvdfrm\Unity.Burst.Cecil.dll_BB9FA74D01403783.mvfrm
Library\Bee\artifacts\mvdfrm\Unity.Burst.Cecil.Mdb.dll_0DC83C3D8681C380.mvfrm
Library\Bee\artifacts\mvdfrm\Unity.Burst.Cecil.Pdb.dll_251AB4AD0536C503.mvfrm
Library\Bee\artifacts\mvdfrm\Unity.Burst.Cecil.Rocks.dll_65598F50FC045383.mvfrm
Library\Bee\artifacts\mvdfrm\Unity.Burst.Unsafe.dll_A4DF0E5BED3F4D20.mvfrm
Library\Bee\artifacts\mvdfrm\Unity.Plastic.Antlr3.Runtime.dll_C5DAD48C00129477.mvfrm
Library\Bee\artifacts\mvdfrm\Unity.Plastic.Newtonsoft.Json.dll_61343B1AFF7099CE.mvfrm
Library\Bee\artifacts\mvdfrm\Unity.VisualScripting.IonicZip.dll_9D890C375DFD9FA3.mvfrm
Library\Bee\artifacts\mvdfrm\Unity.VisualScripting.YamlDotNet.dll_CB093E00034690C9.mvfrm
Library\Bee\artifacts\mvdfrm\Unity.VisualScripting.Antlr3.Runtime.dll_7C7664E1340FA0E8.mvfrm